C:\CHASE\Automation\Automation\Automation_Demo\src\test\java\com\Automation_Demo\utilities\PropertyReader.java
C:\CHASE\Automation\Automation\Automation_Demo\src\test\java\com\Automation_Demo\utilities\DriverHelper.java
C:\CHASE\Automation\Automation\Automation_Demo\src\test\java\com\Automation_Demo\helperFiles\DemoHelper.java
C:\CHASE\Automation\Automation\Automation_Demo\src\test\java\com\Automation_Demo\utilities\LocatorReader.java
C:\CHASE\Automation\Automation\Automation_Demo\src\test\java\com\Automation_Demo\runnerClass\RunnerClass.java
C:\CHASE\Automation\Automation\Automation_Demo\src\test\java\com\Automation_Demo\StepsDefinations\Demo_StepsDefinations.java
C:\CHASE\Automation\Automation\Automation_Demo\src\test\java\com\Automation_Demo\utilities\DriverTestCase.java
